{
    "facebook": {
        "url": { 
            "authorization": "https://www.facebook.com/v3.3/dialog/oauth?",
            "token": "https://graph.facebook.com/v3.3/oauth/access_token?",
            "redirect": "http://localhost:8093/success",
            "api": "https://graph.facebook.com/v3.3/me?fields=id,name",
            "token_as_parameters": true
        },
        "client": {
            "id":319593452736911,
            "secret": "20c0f8b9263cf8e6b398b32cb0cf77f9",
            "app_name": "Oauth"
        },
        "state" : "\"{st=state123abc,ds=123456789}\""
    },
    
    "github": {
        "url": { 
            "authorization": "https://github.com/login/oauth/authorize?",
            "token": "https://github.com/login/oauth/access_token?",
            "redirect": "http://localhost:8093/github",
            "api": "https://api.github.com/user",
            "token_as_parameters": false 
        },
        "client": {
            "id":"1f9c41cc685523861e4a",
            "secret": "133f35f53c53ee20176654b6591236884a13ac98",
            "app_name": "Oauth-sdk"
        },
        "state" : "OAIIoiojn"

    }
}